{
    "http-basic": {
        "composer.deliciousbrains.com": {
            "username": "7B01469F44DCAA1ABFCB68976CCDF70E",
            "password": "1DAFC697475F5A4D6FA54D2C15FDFA1C"
        }
    },
    "bitbucket-oauth": {
        "bitbucket.org": {
             "consumer-key": "uV6c8UDp9UeqXWDHtX",
             "consumer-secret": "zGE2h85K3RDfvmmJZwVU9uFY3FW3bCEd"
        }
    }
}
